<svg width="46" height="50" viewBox="0 0 46 50" fill="none" xmlns="http://www.w3.org/2000/svg">
<g clip-path="url(#clip0_3437_31311)">
<path d="M22.7 42.4C26.5963 42.4 30.4051 41.2446 33.6448 39.08C36.8844 36.9153 39.4094 33.8386 40.9004 30.2389C42.3915 26.6392 42.7816 22.6782 42.0215 18.8567C41.2614 15.0353 39.3851 11.5251 36.63 8.77001C33.8749 6.01491 30.3647 4.13867 26.5433 3.37854C22.7219 2.61841 18.7609 3.00854 15.1612 4.49958C11.5615 5.99063 8.48474 8.51563 6.32007 11.7553C4.15541 14.9949 3.00002 18.8037 3.00002 22.7C2.99607 25.2882 3.50293 27.8516 4.49155 30.2435C5.48017 32.6354 6.93111 34.8087 8.76121 36.6388C10.5913 38.4689 12.7646 39.9199 15.1565 40.9085C17.5484 41.8971 20.1119 42.404 22.7 42.4V42.4Z" fill="#FF2F3E"/>
<path d="M22.7 45.4C18.2104 45.4 13.8216 44.0687 10.0886 41.5744C6.35557 39.0801 3.44605 35.5348 1.72794 31.3869C0.0098356 27.239 -0.4397 22.6748 0.436184 18.2715C1.31207 13.8681 3.47403 9.82334 6.64869 6.64869C9.82334 3.47403 13.8681 1.31207 18.2715 0.436184C22.6748 -0.4397 27.239 0.0098356 31.3869 1.72794C35.5348 3.44605 39.0801 6.35557 41.5744 10.0886C44.0687 13.8216 45.4 18.2104 45.4 22.7C45.3947 28.7188 43.0014 34.4896 38.7455 38.7455C34.4896 43.0014 28.7188 45.3947 22.7 45.4V45.4ZM22.7 6.00001C19.3971 6.00001 16.1683 6.97945 13.422 8.81447C10.6757 10.6495 8.53521 13.2577 7.27122 16.3092C6.00724 19.3607 5.67652 22.7185 6.3209 25.958C6.96527 29.1975 8.55579 32.1732 10.8913 34.5087C13.2269 36.8442 16.2025 38.4348 19.442 39.0791C22.6815 39.7235 26.0393 39.3928 29.0908 38.1288C32.1423 36.8648 34.7505 34.7243 36.5856 31.978C38.4206 29.2317 39.4 26.003 39.4 22.7C39.3947 18.2725 37.6336 14.0279 34.5028 10.8972C31.3721 7.76646 27.1275 6.0053 22.7 6.00001V6.00001Z" fill="#141D2B"/>
<path d="M19.5998 20.1999C19.5538 20.154 19.5174 20.0994 19.4925 20.0394C19.4676 19.9793 19.4548 19.9149 19.4548 19.8499C19.4548 19.7849 19.4676 19.7206 19.4925 19.6605C19.5174 19.6005 19.5538 19.5459 19.5998 19.4999C19.6458 19.454 19.7003 19.4175 19.7604 19.3926C19.8204 19.3678 19.8848 19.355 19.9498 19.355C20.0148 19.355 20.0792 19.3678 20.1392 19.3926C20.1993 19.4175 20.2538 19.454 20.2998 19.4999L25.2998 24.4999C25.3738 24.5494 25.4608 24.5758 25.5498 24.5758C25.6388 24.5758 25.7258 24.5494 25.7998 24.4999L27.1998 23.0999C27.2393 23.0621 27.2867 23.0336 27.3386 23.0163C27.3905 22.999 27.4455 22.9934 27.4998 22.9999C27.639 23.0392 27.7861 23.0414 27.9264 23.0063C28.0667 22.9712 28.1954 22.9001 28.2998 22.7999C28.3812 22.6766 28.4159 22.5281 28.3976 22.3815C28.3793 22.2348 28.3091 22.0995 28.1998 21.9999C28.092 21.8817 27.9608 21.7872 27.8144 21.7226C27.668 21.6579 27.5098 21.6245 27.3498 21.6245C27.1898 21.6245 27.0316 21.6579 26.8852 21.7226C26.7388 21.7872 26.6076 21.8817 26.4998 21.9999L26.1998 22.2999C26.0998 22.3999 26.0998 22.3999 25.9998 22.3999C25.8998 22.3999 25.8998 22.3999 25.7998 22.2999L19.7998 15.6999C19.6228 15.5594 19.4184 15.4573 19.1998 15.3999L15.9998 15.0999C15.9063 15.0876 15.8112 15.0995 15.7237 15.1346C15.6361 15.1696 15.559 15.2265 15.4998 15.2999C15.3998 15.4999 15.2998 15.5999 15.2998 15.7999L15.5998 18.9999C15.5965 19.1169 15.6221 19.2329 15.6745 19.3376C15.7268 19.4423 15.8042 19.5324 15.8998 19.5999L22.4998 25.5999C22.5998 25.5999 22.5998 25.6999 22.5998 25.7999C22.5998 25.8999 22.5998 25.8999 22.4998 25.9999L22.1998 26.2999C22.0815 26.4077 21.9871 26.539 21.9224 26.6853C21.8578 26.8317 21.8244 26.9899 21.8244 27.1499C21.8244 27.3099 21.8578 27.4682 21.9224 27.6145C21.9871 27.7609 22.0815 27.8922 22.1998 27.9999C22.3114 28.0879 22.4449 28.1437 22.5859 28.1613C22.7269 28.1789 22.87 28.1577 22.9998 28.0999C23.1111 28.0031 23.1899 27.8745 23.2257 27.7314C23.2614 27.5883 23.2524 27.4377 23.1998 27.2999C23.1933 27.2456 23.1988 27.1906 23.2161 27.1387C23.2334 27.0868 23.262 27.0394 23.2998 26.9999L24.6998 25.5999C24.7492 25.5259 24.7756 25.4389 24.7756 25.3499C24.7756 25.2609 24.7492 25.1739 24.6998 25.0999L19.5998 20.1999Z" fill="white"/>
<path d="M29.2999 27.8001L26.6999 25.2001C26.6259 25.1507 26.5389 25.1243 26.4499 25.1243C26.3609 25.1243 26.2739 25.1507 26.1999 25.2001L25.1999 26.2001C25.1504 26.2741 25.124 26.3611 25.124 26.4501C25.124 26.5391 25.1504 26.6261 25.1999 26.7001L27.7999 29.3001C27.9403 29.4074 28.1034 29.4812 28.2767 29.5159C28.45 29.5505 28.629 29.5451 28.7999 29.5001C28.9941 29.4538 29.1718 29.3545 29.313 29.2132C29.4542 29.072 29.5535 28.8944 29.5999 28.7001C29.7999 28.5001 29.6999 28.2001 29.2999 27.8001Z" fill="white"/>
<path fill-rule="evenodd" clip-rule="evenodd" d="M12.7498 41.1601L15.9098 36.5601C16.0462 36.36 16.2208 36.189 16.4237 36.0569C16.6265 35.9248 16.8536 35.8343 17.0917 35.7906C17.3298 35.7469 17.5742 35.7508 17.8108 35.8022C18.0473 35.8536 18.2714 35.9515 18.4698 36.0901C18.6505 36.2208 18.8091 36.3794 18.9398 36.5601L22.0998 41.1601C22.3097 41.4663 22.4219 41.8289 22.4219 42.2001C22.4219 42.5713 22.3097 42.9338 22.0998 43.2401L18.9398 47.8401C18.8035 48.0401 18.6289 48.2112 18.426 48.3432C18.2231 48.4753 17.9961 48.5659 17.758 48.6096C17.5199 48.6533 17.2755 48.6493 17.0389 48.5979C16.8023 48.5465 16.5783 48.4487 16.3798 48.3101C16.1969 48.1821 16.0378 48.023 15.9098 47.8401L12.7498 43.2401C12.54 42.9338 12.4277 42.5713 12.4277 42.2001C12.4277 41.8289 12.54 41.4663 12.7498 41.1601V41.1601Z" fill="white"/>
<path d="M17.4202 49.64C16.8443 49.6366 16.283 49.4587 15.8102 49.13C15.5239 48.9338 15.2764 48.6863 15.0802 48.4L11.9202 43.81C11.5956 43.3358 11.4219 42.7746 11.4219 42.2C11.4219 41.6254 11.5956 41.0641 11.9202 40.59L15.0802 36C15.291 35.6849 15.5627 35.4151 15.8794 35.2067C16.1961 34.9983 16.5513 34.8554 16.9241 34.7864C17.2969 34.7174 17.6798 34.7238 18.0501 34.8051C18.4204 34.8865 18.7706 35.0411 19.0802 35.26C19.3698 35.4596 19.6206 35.7103 19.8202 36L22.9702 40.59C23.2975 41.0631 23.4728 41.6247 23.4728 42.2C23.4728 42.7753 23.2975 43.3369 22.9702 43.81L19.7702 48.4C19.5596 48.71 19.2892 48.9749 18.975 49.1792C18.6608 49.3836 18.309 49.5232 17.9402 49.59C17.7686 49.6215 17.5946 49.6382 17.4202 49.64V49.64ZM17.4202 36.77C17.2828 36.7674 17.147 36.7989 17.0248 36.8617C16.9026 36.9246 16.798 37.0167 16.7202 37.13L13.5602 41.72C13.4587 41.867 13.4043 42.0414 13.4043 42.22C13.4043 42.3986 13.4587 42.573 13.5602 42.72L16.7202 47.31C16.7805 47.3953 16.8549 47.4697 16.9402 47.53C17.1259 47.6522 17.3513 47.6987 17.5702 47.66C17.6792 47.6411 17.7832 47.6003 17.876 47.5402C17.9688 47.48 18.0484 47.4017 18.1102 47.31L21.2702 42.72C21.3717 42.573 21.426 42.3986 21.426 42.22C21.426 42.0414 21.3717 41.867 21.2702 41.72L18.1102 37.13C18.0526 37.0425 17.9777 36.9676 17.8902 36.91C17.7546 36.8178 17.5942 36.769 17.4302 36.77H17.4202Z" fill="#141D2B"/>
<path fill-rule="evenodd" clip-rule="evenodd" d="M23.3 41.16L26.46 36.56C26.7351 36.1616 27.1568 35.8884 27.6329 35.8003C28.109 35.7122 28.6005 35.8164 29 36.09C29.1806 36.2207 29.3393 36.3794 29.47 36.56L32.63 41.16C32.8398 41.4662 32.9521 41.8288 32.9521 42.2C32.9521 42.5712 32.8398 42.9337 32.63 43.24L29.47 47.84C29.3337 48.04 29.159 48.2111 28.9562 48.3431C28.7533 48.4752 28.5262 48.5658 28.2881 48.6095C28.05 48.6532 27.8056 48.6492 27.569 48.5978C27.3325 48.5464 27.1085 48.4486 26.91 48.31C26.7271 48.182 26.568 48.0229 26.44 47.84L23.28 43.24C23.0731 42.9317 22.9643 42.5681 22.9679 42.1969C22.9714 41.8257 23.0872 41.4642 23.3 41.16V41.16Z" fill="white"/>
<path d="M28.0003 49.64C27.4244 49.6366 26.8631 49.4588 26.3903 49.13C26.1039 48.9339 25.8564 48.6864 25.6603 48.4L22.5003 43.81C22.1757 43.3359 22.002 42.7747 22.002 42.2C22.002 41.6254 22.1757 41.0642 22.5003 40.59L25.6303 36C26.0574 35.3799 26.7125 34.954 27.4526 34.8153C28.1928 34.6767 28.9577 34.8366 29.5803 35.26C29.8699 35.4596 30.1207 35.7104 30.3203 36L33.4803 40.59C33.8023 41.0652 33.9744 41.626 33.9744 42.2C33.9744 42.774 33.8023 43.3349 33.4803 43.81L30.3203 48.4C30.1096 48.7101 29.8393 48.975 29.5251 49.1793C29.2109 49.3836 28.8591 49.5233 28.4903 49.59C28.3286 49.6199 28.1647 49.6366 28.0003 49.64V49.64ZM28.0003 36.76C27.8622 36.7594 27.726 36.7929 27.6039 36.8574C27.4818 36.9219 27.3775 37.0156 27.3003 37.13L24.1403 41.72C24.0388 41.867 23.9844 42.0414 23.9844 42.22C23.9844 42.3987 24.0388 42.5731 24.1403 42.72L27.3003 47.31C27.3579 47.3976 27.4327 47.4724 27.5203 47.53C27.7055 47.6532 27.9314 47.6998 28.1503 47.66C28.2592 47.6411 28.3632 47.6004 28.456 47.5402C28.5488 47.4801 28.6285 47.4018 28.6903 47.31L31.8503 42.72C31.9518 42.5731 32.0061 42.3987 32.0061 42.22C32.0061 42.0414 31.9518 41.867 31.8503 41.72L28.6903 37.13C28.6327 37.0425 28.5578 36.9676 28.4703 36.91C28.3327 36.813 28.1686 36.7606 28.0003 36.76Z" fill="#141D2B"/>
</g>
<defs>
<clipPath id="clip0_3437_31311">
<rect width="45.4" height="49.64" fill="white"/>
</clipPath>
</defs>
</svg>
