<?xml version="1.0" encoding="UTF-8"?>
<svg width="32px" height="32px" viewBox="0 0 32 32" version="1.1" xmlns="http://www.w3.org/2000/svg" xmlns:xlink="http://www.w3.org/1999/xlink">
    <!-- Generator: Sketch 59.1 (86144) - https://sketch.com -->
    <title>ic-menu-academy</title>
    <desc>Created with Sketch.</desc>
    <defs>
        <circle id="path-1" cx="16" cy="16" r="16"></circle>
    </defs>
    <g id="ic-menu-academy" stroke="none" stroke-width="1" fill="none" fill-rule="evenodd">
        <g id="ic-academy">
            <g id="Shape">
                <mask id="mask-2" fill="white">
                    <use xlink:href="#path-1"></use>
                </mask>
                <use id="Mask" fill="#111927" fill-rule="nonzero" xlink:href="#path-1"></use>
                <path d="M32,16 C32,24.836556 24.836556,32 16,32 C7.163444,32 0,24.836556 0,16" id="Path" fill="#1A2332" fill-rule="nonzero" mask="url(#mask-2)"></path>
                <path d="M22.9137867,13.5036293 L10.753824,13.5036293 C8.88925885,13.505854 7.3782787,15.0168162 7.376032,16.8813813 L7.376032,29.0413333 C7.37823906,30.9059025 8.88921752,32.4168857 10.7537867,32.4190987 L22.9137493,32.4190987 C23.0929208,32.4190987 23.2647543,32.3479251 23.3914477,32.2212317 C23.5181411,32.0945383 23.5893147,31.9227048 23.5893147,31.7435333 L23.5893147,14.1792 C23.5893147,14.0000332 23.518152,13.8282023 23.3914659,13.7015082 C23.2647799,13.5748142 23.0929535,13.5036293 22.9137867,13.5036293 Z M22.2382213,18.9080494 L10.7538267,18.9080494 C10.0285325,18.909903 9.35753575,18.5240312 8.99435059,17.8962162 C8.63116542,17.2684013 8.63116542,16.494364 8.99435059,15.8665491 C9.35753575,15.2387342 10.0285325,14.8528623 10.7538267,14.854716 L22.2382213,14.854716 L22.2382213,18.9080494 Z" fill="#FFFFFF" fill-rule="nonzero" mask="url(#mask-2)"></path>
            </g>
        </g>
    </g>
</svg>